<svg id="Component_9_1" data-name="Component 9 – 1" xmlns="http://www.w3.org/2000/svg" width="136" height="40" viewBox="0 0 136 40">
  <g id="Component_4_1" data-name="Component 4 – 1">
    <rect id="Rectangle_23" data-name="Rectangle 23" width="136" height="40" rx="20" fill="#2182eb"/>
  </g>
  <text id="WRITE_A_TIP" data-name="WRITE A TIP" transform="translate(18 27)" fill="#fff" font-size="18" font-family="Raleway" letter-spacing="0.004em"><tspan x="0" y="0">WRITE A TIP</tspan></text>
</svg>
